{
  "next_page_token": "TJMOnjQSSQKzQ7YqBuKLWQKClRw89MG3NT2",
  "page_count": 9,
  "page_number": 1,
  "page_size": 30,
  "total_records": 255,
  "users": [
    {
      "created_at": "2020-11-05T03:38:25Z",
      "email": "bnb.gsuite@gmail.com",
      "first_name": "BNB",
      "id": "pmRvWXSDTVS3p1sKsuOG5Q",
      "language": "en-US",
      "last_login_time": "2021-01-25T14:39:42Z",
      "last_name": "Zoom integration",
      "phone_number": "",
      "pmi": 2054318748,
      "role_id": "0",
      "status": "active",
      "timezone": "Asia/Calcutta",
      "type": 2,
      "verified": 1
    },
    {
      "created_at": "2020-12-22T14:03:12Z",
      "email": "able-thumb.ffwfs85e@mailosaur.io",
      "first_name": "119",
      "id": "VzabRhxtTOONy5Cvt2s_VQ",
      "language": "en-US",
      "last_login_time": "2020-12-22T14:03:12Z",
      "last_name": "119",
      "pmi": 8050169180,
      "role_id": "2",
      "status": "active",
      "timezone": "",
      "type": 1,
      "verified": 1
    },
    {
      "created_at": "2020-12-22T14:12:16Z",
      "email": "action-baby.ffwfs85e@mailosaur.io",
      "first_name": "138",
      "id": "xBDCwHSPSCya1YjeF2Gxvg",
      "language": "en-US",
      "last_login_time": "2020-12-22T14:12:16Z",
      "last_name": "138",
      "pmi": 5958447996,
      "role_id": "2",
      "status": "active",
      "timezone": "",
      "type": 1,
      "verified": 1
    },
    {
      "created_at": "2020-12-22T13:30:14Z",
      "email": "affect-cross.ffwfs85e@mailosaur.io",
      "first_name": "56",
      "id": "REwYW3IoRKqLtDuF5C8qPA",
      "language": "en-US",
      "last_login_time": "2020-12-22T13:30:14Z",
      "last_name": "56",
      "pmi": 7545405119,
      "role_id": "2",
      "status": "active",
      "timezone": "",
      "type": 1,
      "verified": 1
    },
    {
      "created_at": "2020-12-22T15:06:41Z",
      "email": "afraid-easily.ffwfs85e@mailosaur.io",
      "first_name": "218",
      "id": "Q_1xMRYHRX-G2TRQN_ltcA",
      "language": "en-US",
      "last_login_time": "2020-12-22T15:06:41Z",
      "last_name": "218",
      "pmi": 8964801876,
      "role_id": "2",
      "status": "active",
      "timezone": "",
      "type": 1,
      "verified": 1
    },
    {
      "created_at": "2020-11-20T08:50:58Z",
      "email": "afraid-station.b16nlaz8@mailosaur.io",
      "first_name": "Diksha",
      "id": "x2ZGi5rcTf2EeXYObQXXug",
      "language": "en-US",
      "last_login_time": "2020-11-20T08:50:58Z",
      "last_name": "More1111",
      "pmi": 5223590835,
      "role_id": "2",
      "status": "active",
      "timezone": "",
      "type": 1,
      "verified": 1
    },
    {
      "created_at": "2020-12-22T13:43:28Z",
      "email": "age-adjective.ffwfs85e@mailosaur.io",
      "first_name": "73",
      "id": "CmBK7gy4T2GIV9J_1Wbd3Q",
      "language": "en-US",
      "last_login_time": "2020-12-22T13:43:28Z",
      "last_name": "73",
      "pmi": 6576537996,
      "role_id": "2",
      "status": "active",
      "timezone": "",
      "type": 1,
      "verified": 1
    },
    {
      "created_at": "2020-12-22T13:53:43Z",
      "email": "aloud-noise.ffwfs85e@mailosaur.io",
      "first_name": "92",
      "id": "bPhwGyjGSIGP0LlGiL498g",
      "language": "en-US",
      "last_login_time": "2020-12-22T13:53:43Z",
      "last_name": "92",
      "pmi": 9647792645,
      "role_id": "2",
      "status": "active",
      "timezone": "",
      "type": 1,
      "verified": 1
    },
    {
      "created_at": "2020-12-22T13:46:19Z",
      "email": "aloud-type.ffwfs85e@mailosaur.io",
      "first_name": "78",
      "id": "eGcyBDirTZ-pEvzQEBYpGA",
      "language": "en-US",
      "last_login_time": "2020-12-22T13:46:20Z",
      "last_name": "78",
      "pmi": 4755633361,
      "role_id": "2",
      "status": "active",
      "timezone": "",
      "type": 1,
      "verified": 1
    },
    {
      "created_at": "2020-12-22T13:37:52Z",
      "email": "angle-zulu.ffwfs85e@mailosaur.io",
      "first_name": "64",
      "id": "XmitPQSGTTyYEXOte81hCQ",
      "language": "en-US",
      "last_login_time": "2020-12-22T13:37:52Z",
      "last_name": "64",
      "pmi": 3362851165,
      "role_id": "2",
      "status": "active",
      "timezone": "",
      "type": 1,
      "verified": 1
    },
    {
      "created_at": "2019-08-02T15:28:55Z",
      "dept": "Product",
      "email": "anuragdube3091@gmail.com",
      "first_name": "Anurag",
      "id": "XYQP9fREQaWGAjMZGQD8HQ",
      "language": "en-US",
      "last_client_version": "5.4.58903.1122(mac)",
      "last_login_time": "2020-12-06T07:43:24Z",
      "last_name": "Dubey",
      "phone_number": "",
      "pic_url": "https://lh5.googleusercontent.com/-NSoH0gI7OJM/AAAAAAAAAAI/AAAAAAAAAAA/AMZuucln5rmKi3VlRUuZEyJ98IwXsCKGcg/s96-c/photo.jpg",
      "pmi": 9678236904,
      "role_id": "2",
      "status": "active",
      "timezone": "Asia/Calcutta",
      "type": 1,
      "verified": 0
    },
    {
      "created_at": "2020-12-22T14:11:51Z",
      "email": "anyway-fill.ffwfs85e@mailosaur.io",
      "first_name": "137",
      "id": "cFPw9wB8R0CT_ibSPO1GtQ",
      "language": "en-US",
      "last_login_time": "2020-12-22T14:11:51Z",
      "last_name": "137",
      "pmi": 6451835376,
      "role_id": "2",
      "status": "active",
      "timezone": "",
      "type": 1,
      "verified": 1
    },
    {
      "created_at": "2020-12-22T15:12:32Z",
      "email": "apartment-green.ffwfs85e@mailosaur.io",
      "first_name": "223",
      "id": "DA9MXXQiTRa9t6-1QiWl1g",
      "language": "en-US",
      "last_login_time": "2020-12-22T15:12:33Z",
      "last_name": "223",
      "pmi": 3999841624,
      "role_id": "2",
      "status": "active",
      "timezone": "",
      "type": 1,
      "verified": 1
    },
    {
      "created_at": "2020-12-22T13:59:10Z",
      "email": "arrange-lovely.ffwfs85e@mailosaur.io",
      "first_name": "108",
      "id": "PgA4ETHWTre839mZtfL4ow",
      "language": "en-US",
      "last_login_time": "2020-12-22T13:59:10Z",
      "last_name": "108",
      "pmi": 5968835999,
      "role_id": "2",
      "status": "active",
      "timezone": "",
      "type": 1,
      "verified": 1
    },
    {
      "created_at": "2020-12-22T14:57:42Z",
      "email": "ask-race.ffwfs85e@mailosaur.io",
      "first_name": "191",
      "id": "M6nlCYxFSM6D3-GIa-I6Yg",
      "language": "en-US",
      "last_login_time": "2020-12-22T14:57:42Z",
      "last_name": "191",
      "pmi": 6432957624,
      "role_id": "2",
      "status": "active",
      "timezone": "",
      "type": 1,
      "verified": 1
    },
    {
      "created_at": "2020-12-22T13:49:15Z",
      "email": "basis-hardly.ffwfs85e@mailosaur.io",
      "first_name": "81",
      "id": "Be0BD0ClTtWQzJvi4RiACg",
      "language": "en-US",
      "last_login_time": "2020-12-22T13:49:15Z",
      "last_name": "81",
      "pmi": 3919067828,
      "role_id": "2",
      "status": "active",
      "timezone": "",
      "type": 1,
      "verified": 1
    },
    {
      "created_at": "2020-12-22T12:48:17Z",
      "email": "basket-feel.ffwfs85e@mailosaur.io",
      "first_name": "Test3",
      "id": "9GaS2BucRiKtww4t881KxA",
      "language": "en-US",
      "last_login_time": "2020-12-22T12:48:17Z",
      "last_name": "Test3",
      "pmi": 9075290266,
      "role_id": "2",
      "status": "active",
      "timezone": "",
      "type": 1,
      "verified": 1
    },
    {
      "created_at": "2020-12-22T15:05:04Z",
      "email": "basket-sort.ffwfs85e@mailosaur.io",
      "first_name": "209",
      "id": "xhckWtFCT22Qv05ddtj0Nw",
      "language": "en-US",
      "last_login_time": "2020-12-22T15:05:04Z",
      "last_name": "209",
      "pmi": 5985483104,
      "role_id": "2",
      "status": "active",
      "timezone": "",
      "type": 1,
      "verified": 1
    },
    {
      "created_at": "2020-12-22T14:10:39Z",
      "email": "becoming-history.ffwfs85e@mailosaur.io",
      "first_name": "133",
      "id": "9llS5de-S5SjOjv4ib76OQ",
      "language": "en-US",
      "last_login_time": "2020-12-22T14:10:39Z",
      "last_name": "133",
      "pmi": 3488663336,
      "role_id": "2",
      "status": "active",
      "timezone": "",
      "type": 1,
      "verified": 1
    },
    {
      "created_at": "2020-12-22T13:51:35Z",
      "email": "bee-die.ffwfs85e@mailosaur.io",
      "first_name": "87",
      "id": "yabhmZRDTCO-AkGZYnxh_g",
      "language": "en-US",
      "last_login_time": "2020-12-22T13:51:35Z",
      "last_name": "87",
      "pmi": 2896129595,
      "role_id": "2",
      "status": "active",
      "timezone": "",
      "type": 1,
      "verified": 1
    },
    {
      "created_at": "2020-12-22T15:05:37Z",
      "email": "beyond-powder.ffwfs85e@mailosaur.io",
      "first_name": "212",
      "id": "mYZMSoUsTDSwF4kFnTIv3A",
      "language": "en-US",
      "last_login_time": "2020-12-22T15:05:37Z",
      "last_name": "212",
      "pmi": 7125254776,
      "role_id": "2",
      "status": "active",
      "timezone": "",
      "type": 1,
      "verified": 1
    },
    {
      "created_at": "2020-12-22T14:54:14Z",
      "email": "bigger-air.ffwfs85e@mailosaur.io",
      "first_name": "177",
      "id": "hf1lPZfkQKeV9LnsxkYbwQ",
      "language": "en-US",
      "last_login_time": "2020-12-22T14:54:14Z",
      "last_name": "177",
      "pmi": 8410690690,
      "role_id": "2",
      "status": "active",
      "timezone": "",
      "type": 1,
      "verified": 1
    },
    {
      "created_at": "2020-12-22T14:22:01Z",
      "email": "bill-hung.ffwfs85e@mailosaur.io",
      "first_name": "162",
      "id": "r_0nKe6zRBiccut6UyKygg",
      "language": "en-US",
      "last_login_time": "2020-12-22T14:22:01Z",
      "last_name": "162",
      "pmi": 9682493689,
      "role_id": "2",
      "status": "active",
      "timezone": "",
      "type": 1,
      "verified": 1
    },
    {
      "created_at": "2020-12-22T14:04:06Z",
      "email": "birds-almost.ffwfs85e@mailosaur.io",
      "first_name": "124",
      "id": "lctFGLroQn2cQbg9GB3Bmw",
      "language": "en-US",
      "last_login_time": "2020-12-22T14:04:06Z",
      "last_name": "124",
      "pmi": 7632465146,
      "role_id": "2",
      "status": "active",
      "timezone": "",
      "type": 1,
      "verified": 1
    },
    {
      "created_at": "2020-12-22T14:54:29Z",
      "email": "black-these.ffwfs85e@mailosaur.io",
      "first_name": "178",
      "id": "t9kophiNSUCUeJFXN08_aA",
      "language": "en-US",
      "last_login_time": "2020-12-22T14:54:29Z",
      "last_name": "178",
      "pmi": 3141525164,
      "role_id": "2",
      "status": "active",
      "timezone": "",
      "type": 1,
      "verified": 1
    },
    {
      "created_at": "2020-12-22T14:02:32Z",
      "email": "blow-advice.ffwfs85e@mailosaur.io",
      "first_name": "115",
      "id": "CR92crZ2Q4GNY5piRqJ5lQ",
      "language": "en-US",
      "last_login_time": "2020-12-22T14:02:32Z",
      "last_name": "115",
      "pmi": 5016418052,
      "role_id": "2",
      "status": "active",
      "timezone": "",
      "type": 1,
      "verified": 1
    },
    {
      "created_at": "2020-12-22T15:15:06Z",
      "email": "board-would.ffwfs85e@mailosaur.io",
      "first_name": "137",
      "id": "noor5I3tS_qRYhRcxtd6HQ",
      "language": "en-US",
      "last_login_time": "2020-12-22T15:15:06Z",
      "last_name": "137",
      "pmi": 8161257080,
      "role_id": "2",
      "status": "active",
      "timezone": "",
      "type": 1,
      "verified": 1
    },
    {
      "created_at": "2020-12-22T14:12:41Z",
      "email": "boat-sport.ffwfs85e@mailosaur.io",
      "first_name": "139",
      "id": "0bGdq3zdTrWHfwgxCVc5zQ",
      "language": "en-US",
      "last_login_time": "2020-12-22T14:12:41Z",
      "last_name": "139",
      "pmi": 6310927999,
      "role_id": "2",
      "status": "active",
      "timezone": "",
      "type": 1,
      "verified": 1
    },
    {
      "created_at": "2020-12-22T14:56:46Z",
      "email": "bowl-soil.ffwfs85e@mailosaur.io",
      "first_name": "186",
      "id": "GJyvfKvQQcamC7dNngYsig",
      "language": "en-US",
      "last_login_time": "2020-12-22T14:56:46Z",
      "last_name": "186",
      "pmi": 8398469738,
      "role_id": "2",
      "status": "active",
      "timezone": "",
      "type": 1,
      "verified": 1
    },
    {
      "created_at": "2020-12-22T13:57:49Z",
      "email": "bowl-won.ffwfs85e@mailosaur.io",
      "first_name": "101",
      "id": "QQIWd7RmRJuJz62Bqi4e6A",
      "language": "en-US",
      "last_login_time": "2020-12-22T13:57:49Z",
      "last_name": "101",
      "pmi": 4679580075,
      "role_id": "2",
      "status": "active",
      "timezone": "",
      "type": 1,
      "verified": 1
    }
  ]
}
